{
  "configVersion": 2,
  "packages": [
    {
      "name": "async",
      "rootUri": "file:///Users/violettagoldman/Development/flutter/.pub-cache/hosted/pub.dartlang.org/async-2.5.0-nullsafety.3",
      "packageUri": "lib/",
      "languageVersion": "2.12"
    },
    {
      "name": "boolean_selector",
      "rootUri": "file:///Users/violettagoldman/Development/flutter/.pub-cache/hosted/pub.dartlang.org/boolean_selector-2.1.0-nullsafety.3",
      "packageUri": "lib/",
      "languageVersion": "2.12"
    },
    {
      "name": "characters",
      "rootUri": "file:///Users/violettagoldman/Development/flutter/.pub-cache/hosted/pub.dartlang.org/characters-1.1.0-nullsafety.5",
      "packageUri": "lib/",
      "languageVersion": "2.12"
    },
    {
      "name": "charcode",
      "rootUri": "file:///Users/violettagoldman/Development/flutter/.pub-cache/hosted/pub.dartlang.org/charcode-1.2.0-nullsafety.3",
      "packageUri": "lib/",
      "languageVersion": "2.12"
    },
    {
      "name": "clock",
      "rootUri": "file:///Users/violettagoldman/Development/flutter/.pub-cache/hosted/pub.dartlang.org/clock-1.1.0-nullsafety.3",
      "packageUri": "lib/",
      "languageVersion": "2.12"
    },
    {
      "name": "cloud_firestore",
      "rootUri": "file:///Users/violettagoldman/Development/flutter/.pub-cache/hosted/pub.dartlang.org/cloud_firestore-0.12.11",
      "packageUri": "lib/",
      "languageVersion": "2.0"
    },
    {
      "name": "collection",
      "rootUri": "file:///Users/violettagoldman/Development/flutter/.pub-cache/hosted/pub.dartlang.org/collection-1.15.0-nullsafety.5",
      "packageUri": "lib/",
      "languageVersion": "2.12"
    },
    {
      "name": "cupertino_icons",
      "rootUri": "file:///Users/violettagoldman/Development/flutter/.pub-cache/hosted/pub.dartlang.org/cupertino_icons-1.0.0",
      "packageUri": "lib/",
      "languageVersion": "2.0"
    },
    {
      "name": "fake_async",
      "rootUri": "file:///Users/violettagoldman/Development/flutter/.pub-cache/hosted/pub.dartlang.org/fake_async-1.2.0-nullsafety.3",
      "packageUri": "lib/",
      "languageVersion": "2.12"
    },
    {
      "name": "firebase",
      "rootUri": "file:///Users/violettagoldman/Development/flutter/.pub-cache/hosted/pub.dartlang.org/firebase-7.3.2",
      "packageUri": "lib/",
      "languageVersion": "2.7"
    },
    {
      "name": "firebase_analytics",
      "rootUri": "file:///Users/violettagoldman/Development/flutter/.pub-cache/hosted/pub.dartlang.org/firebase_analytics-5.0.16",
      "packageUri": "lib/",
      "languageVersion": "2.0"
    },
    {
      "name": "firebase_analytics_platform_interface",
      "rootUri": "file:///Users/violettagoldman/Development/flutter/.pub-cache/hosted/pub.dartlang.org/firebase_analytics_platform_interface-1.0.3",
      "packageUri": "lib/",
      "languageVersion": "2.0"
    },
    {
      "name": "firebase_analytics_web",
      "rootUri": "file:///Users/violettagoldman/Development/flutter/.pub-cache/hosted/pub.dartlang.org/firebase_analytics_web-0.1.1",
      "packageUri": "lib/",
      "languageVersion": "2.7"
    },
    {
      "name": "firebase_core",
      "rootUri": "file:///Users/violettagoldman/Development/flutter/.pub-cache/hosted/pub.dartlang.org/firebase_core-0.4.5",
      "packageUri": "lib/",
      "languageVersion": "2.0"
    },
    {
      "name": "firebase_core_platform_interface",
      "rootUri": "file:///Users/violettagoldman/Development/flutter/.pub-cache/hosted/pub.dartlang.org/firebase_core_platform_interface-1.0.4",
      "packageUri": "lib/",
      "languageVersion": "2.0"
    },
    {
      "name": "firebase_core_web",
      "rootUri": "file:///Users/violettagoldman/Development/flutter/.pub-cache/hosted/pub.dartlang.org/firebase_core_web-0.1.1+2",
      "packageUri": "lib/",
      "languageVersion": "2.0"
    },
    {
      "name": "firebase_dynamic_links",
      "rootUri": "file:///Users/violettagoldman/Development/flutter/.pub-cache/hosted/pub.dartlang.org/firebase_dynamic_links-0.5.3",
      "packageUri": "lib/",
      "languageVersion": "2.0"
    },
    {
      "name": "flutter",
      "rootUri": "file:///Users/violettagoldman/Development/flutter/packages/flutter",
      "packageUri": "lib/",
      "languageVersion": "2.12"
    },
    {
      "name": "flutter_test",
      "rootUri": "file:///Users/violettagoldman/Development/flutter/packages/flutter_test",
      "packageUri": "lib/",
      "languageVersion": "2.12"
    },
    {
      "name": "flutter_web_plugins",
      "rootUri": "file:///Users/violettagoldman/Development/flutter/packages/flutter_web_plugins",
      "packageUri": "lib/",
      "languageVersion": "2.12"
    },
    {
      "name": "http",
      "rootUri": "file:///Users/violettagoldman/Development/flutter/.pub-cache/hosted/pub.dartlang.org/http-0.12.2",
      "packageUri": "lib/",
      "languageVersion": "2.4"
    },
    {
      "name": "http_parser",
      "rootUri": "file:///Users/violettagoldman/Development/flutter/.pub-cache/hosted/pub.dartlang.org/http_parser-3.1.4",
      "packageUri": "lib/",
      "languageVersion": "2.3"
    },
    {
      "name": "js",
      "rootUri": "file:///Users/violettagoldman/Development/flutter/.pub-cache/hosted/pub.dartlang.org/js-0.6.3-nullsafety.3",
      "packageUri": "lib/",
      "languageVersion": "2.12"
    },
    {
      "name": "matcher",
      "rootUri": "file:///Users/violettagoldman/Development/flutter/.pub-cache/hosted/pub.dartlang.org/matcher-0.12.10-nullsafety.3",
      "packageUri": "lib/",
      "languageVersion": "2.12"
    },
    {
      "name": "meta",
      "rootUri": "file:///Users/violettagoldman/Development/flutter/.pub-cache/hosted/pub.dartlang.org/meta-1.3.0-nullsafety.6",
      "packageUri": "lib/",
      "languageVersion": "2.12"
    },
    {
      "name": "path",
      "rootUri": "file:///Users/violettagoldman/Development/flutter/.pub-cache/hosted/pub.dartlang.org/path-1.8.0-nullsafety.3",
      "packageUri": "lib/",
      "languageVersion": "2.12"
    },
    {
      "name": "pedantic",
      "rootUri": "file:///Users/violettagoldman/Development/flutter/.pub-cache/hosted/pub.dartlang.org/pedantic-1.9.2",
      "packageUri": "lib/",
      "languageVersion": "2.1"
    },
    {
      "name": "plugin_platform_interface",
      "rootUri": "file:///Users/violettagoldman/Development/flutter/.pub-cache/hosted/pub.dartlang.org/plugin_platform_interface-1.0.3",
      "packageUri": "lib/",
      "languageVersion": "2.1"
    },
    {
      "name": "quiver",
      "rootUri": "file:///Users/violettagoldman/Development/flutter/.pub-cache/hosted/pub.dartlang.org/quiver-2.1.5",
      "packageUri": "lib/",
      "languageVersion": "2.0"
    },
    {
      "name": "sky_engine",
      "rootUri": "file:///Users/violettagoldman/Development/flutter/bin/cache/pkg/sky_engine",
      "packageUri": "lib/",
      "languageVersion": "2.12"
    },
    {
      "name": "source_span",
      "rootUri": "file:///Users/violettagoldman/Development/flutter/.pub-cache/hosted/pub.dartlang.org/source_span-1.8.0-nullsafety.4",
      "packageUri": "lib/",
      "languageVersion": "2.12"
    },
    {
      "name": "stack_trace",
      "rootUri": "file:///Users/violettagoldman/Development/flutter/.pub-cache/hosted/pub.dartlang.org/stack_trace-1.10.0-nullsafety.6",
      "packageUri": "lib/",
      "languageVersion": "2.12"
    },
    {
      "name": "stream_channel",
      "rootUri": "file:///Users/violettagoldman/Development/flutter/.pub-cache/hosted/pub.dartlang.org/stream_channel-2.1.0-nullsafety.3",
      "packageUri": "lib/",
      "languageVersion": "2.12"
    },
    {
      "name": "string_scanner",
      "rootUri": "file:///Users/violettagoldman/Development/flutter/.pub-cache/hosted/pub.dartlang.org/string_scanner-1.1.0-nullsafety.3",
      "packageUri": "lib/",
      "languageVersion": "2.12"
    },
    {
      "name": "term_glyph",
      "rootUri": "file:///Users/violettagoldman/Development/flutter/.pub-cache/hosted/pub.dartlang.org/term_glyph-1.2.0-nullsafety.3",
      "packageUri": "lib/",
      "languageVersion": "2.12"
    },
    {
      "name": "test_api",
      "rootUri": "file:///Users/violettagoldman/Development/flutter/.pub-cache/hosted/pub.dartlang.org/test_api-0.2.19-nullsafety.6",
      "packageUri": "lib/",
      "languageVersion": "2.12"
    },
    {
      "name": "typed_data",
      "rootUri": "file:///Users/violettagoldman/Development/flutter/.pub-cache/hosted/pub.dartlang.org/typed_data-1.3.0-nullsafety.5",
      "packageUri": "lib/",
      "languageVersion": "2.12"
    },
    {
      "name": "url_launcher",
      "rootUri": "file:///Users/violettagoldman/Development/flutter/.pub-cache/hosted/pub.dartlang.org/url_launcher-5.7.10",
      "packageUri": "lib/",
      "languageVersion": "2.1"
    },
    {
      "name": "url_launcher_linux",
      "rootUri": "file:///Users/violettagoldman/Development/flutter/.pub-cache/hosted/pub.dartlang.org/url_launcher_linux-0.0.1+4",
      "packageUri": "lib/",
      "languageVersion": "2.1"
    },
    {
      "name": "url_launcher_macos",
      "rootUri": "file:///Users/violettagoldman/Development/flutter/.pub-cache/hosted/pub.dartlang.org/url_launcher_macos-0.0.1+9",
      "packageUri": "lib/",
      "languageVersion": "2.1"
    },
    {
      "name": "url_launcher_platform_interface",
      "rootUri": "file:///Users/violettagoldman/Development/flutter/.pub-cache/hosted/pub.dartlang.org/url_launcher_platform_interface-1.0.9",
      "packageUri": "lib/",
      "languageVersion": "2.1"
    },
    {
      "name": "url_launcher_web",
      "rootUri": "file:///Users/violettagoldman/Development/flutter/.pub-cache/hosted/pub.dartlang.org/url_launcher_web-0.1.5+1",
      "packageUri": "lib/",
      "languageVersion": "2.2"
    },
    {
      "name": "url_launcher_windows",
      "rootUri": "file:///Users/violettagoldman/Development/flutter/.pub-cache/hosted/pub.dartlang.org/url_launcher_windows-0.0.1+3",
      "packageUri": "lib/",
      "languageVersion": "2.1"
    },
    {
      "name": "vector_math",
      "rootUri": "file:///Users/violettagoldman/Development/flutter/.pub-cache/hosted/pub.dartlang.org/vector_math-2.1.0-nullsafety.5",
      "packageUri": "lib/",
      "languageVersion": "2.12"
    },
    {
      "name": "dynamic_links",
      "rootUri": "../",
      "packageUri": "lib/",
      "languageVersion": "2.7"
    }
  ],
  "generated": "2020-12-10T20:57:14.290233Z",
  "generator": "pub",
  "generatorVersion": "2.12.0-29.10.beta"
}
