{
  "project_info": {
    "project_number": "335778337499",
    "firebase_url": "https://sample-app-for-dynamic-links.firebaseio.com",
    "project_id": "sample-app-for-dynamic-links",
    "storage_bucket": "sample-app-for-dynamic-links.appspot.com"
  },
  "client": [
    {
      "client_info": {
        "mobilesdk_app_id": "1:335778337499:android:774cf59f542724240072fe",
        "android_client_info": {
          "package_name": "com.example.dynamic_links"
        }
      },
      "oauth_client": [
        {
          "client_id": "335778337499-8bkn2307evnstb6iba191c3qnqs2n4g0.apps.googleusercontent.com",
          "client_type": 3
        }
      ],
      "api_key": [
        {
          "current_key": "AIzaSyDR4OvcJoeuJv6X8h88qdMNRQJiVaHADQ4"
        }
      ],
      "services": {
        "appinvite_service": {
          "other_platform_oauth_client": [
            {
              "client_id": "335778337499-8bkn2307evnstb6iba191c3qnqs2n4g0.apps.googleusercontent.com",
              "client_type": 3
            },
            {
              "client_id": "335778337499-1i41eg0ra23j5j25s34gvld9ra39vvu0.apps.googleusercontent.com",
              "client_type": 2,
              "ios_info": {
                "bundle_id": "com.example.dynamicLinks"
              }
            }
          ]
        }
      }
    }
  ],
  "configuration_version": "1"
}